2020-01-27T12:38:25.2988354+05:30 0HLT2UUPRNMGD:00000001 [INF] Request starting HTTP/1.1 POST http://localhost:7002/Login-Api/Master/GetUserDetails application/json; charset=utf-8  (ca22a1cb)
2020-01-27T12:38:25.4900188+05:30 0HLT2UUPRNMGD:00000001 [INF] Route matched with "{action = \"GetUserDetails\", controller = \"Master\"}". Executing controller action with signature "LoginApi.Entities.Baseclasses.Response`1[LoginApi.Entities.UserLogin] GetUserDetails(LoginApi.Entities.UserLogin)" on controller "LoginApi.Controllers.MasterController" ("LoginApi"). (122b2fdf)
2020-01-27T12:38:25.6349851+05:30 0HLT2UUPRNMGD:00000001 [INF] Executing action method "LoginApi.Controllers.MasterController.GetUserDetails (LoginApi)" - Validation state: Valid (dad538d7)
2020-01-27T12:38:27.6285937+05:30 0HLT2UUPRNMGD:00000001 [INF] Executed action method "LoginApi.Controllers.MasterController.GetUserDetails (LoginApi)", returned result "Microsoft.AspNetCore.Mvc.ObjectResult" in 1981.0418ms. (50a9e262)
2020-01-27T12:38:27.6557121+05:30 0HLT2UUPRNMGD:00000001 [INF] Executing ObjectResult, writing value of type '"LoginApi.Entities.Baseclasses.Response`1[[LoginApi.Entities.UserLogin, LoginApi, Version=1.0.0.0, Culture=neutral, PublicKeyToken=null]]"'. (8a1b66c8)
2020-01-27T12:38:27.7877983+05:30 0HLT2UUPRNMGD:00000001 [INF] Executed action "LoginApi.Controllers.MasterController.GetUserDetails (LoginApi)" in 2291.4652ms (afa2e885)
2020-01-27T12:38:27.7941955+05:30 0HLT2UUPRNMGD:00000001 [INF] Request finished in 2499.967ms 200 application/json; charset=utf-8 (791a596a)
2020-01-27T12:39:20.3945836+05:30 0HLT2UUPRNMGD:00000002 [INF] Request starting HTTP/1.1 GET http://localhost:7002/Login-Api/Report/GetProductCustomerCount  0 (ca22a1cb)
2020-01-27T12:39:20.3974787+05:30 0HLT2UUPRNMGD:00000002 [INF] Route matched with "{action = \"GetProductCustomerCount\", controller = \"Report\"}". Executing controller action with signature "System.Collections.Generic.List`1[LoginApi.Entities.ReportCarrier] GetProductCustomerCount()" on controller "LoginApi.Controllers.ReportController" ("LoginApi"). (122b2fdf)
2020-01-27T12:39:20.3983569+05:30 0HLT2UUPRNMGD:00000002 [INF] Executing action method "LoginApi.Controllers.ReportController.GetProductCustomerCount (LoginApi)" - Validation state: Valid (dad538d7)
2020-01-27T12:39:20.4116692+05:30 0HLT2UUPRNMGD:00000002 [INF] Executed action method "LoginApi.Controllers.ReportController.GetProductCustomerCount (LoginApi)", returned result "Microsoft.AspNetCore.Mvc.ObjectResult" in 13.1156ms. (50a9e262)
2020-01-27T12:39:20.4119694+05:30 0HLT2UUPRNMGD:00000002 [INF] Executing ObjectResult, writing value of type '"System.Collections.Generic.List`1[[LoginApi.Entities.ReportCarrier, LoginApi, Version=1.0.0.0, Culture=neutral, PublicKeyToken=null]]"'. (8a1b66c8)
2020-01-27T12:39:20.4179027+05:30 0HLT2UUPRNMGD:00000002 [INF] Executed action "LoginApi.Controllers.ReportController.GetProductCustomerCount (LoginApi)" in 20.2737ms (afa2e885)
2020-01-27T12:39:20.4181166+05:30 0HLT2UUPRNMGD:00000002 [INF] Request finished in 23.7467ms 200 application/json; charset=utf-8 (791a596a)
2020-01-27T12:39:38.4009140+05:30 0HLT2UUPRNMGD:00000003 [INF] Request starting HTTP/1.1 GET http://localhost:7002/Login-Api/Master/GetProductList  0 (ca22a1cb)
2020-01-27T12:39:38.4064523+05:30 0HLT2UUPRNMGD:00000003 [INF] Route matched with "{action = \"GetProductList\", controller = \"Master\"}". Executing controller action with signature "System.Collections.Generic.List`1[LoginApi.Entities.Product] GetProductList()" on controller "LoginApi.Controllers.MasterController" ("LoginApi"). (122b2fdf)
2020-01-27T12:39:38.4068470+05:30 0HLT2UUPRNMGD:00000003 [INF] Executing action method "LoginApi.Controllers.MasterController.GetProductList (LoginApi)" - Validation state: Valid (dad538d7)
2020-01-27T12:39:38.4423756+05:30 0HLT2UUPRNMGD:00000003 [INF] Executed action method "LoginApi.Controllers.MasterController.GetProductList (LoginApi)", returned result "Microsoft.AspNetCore.Mvc.ObjectResult" in 35.3096ms. (50a9e262)
2020-01-27T12:39:38.4425589+05:30 0HLT2UUPRNMGD:00000003 [INF] Executing ObjectResult, writing value of type '"System.Collections.Generic.List`1[[LoginApi.Entities.Product, LoginApi, Version=1.0.0.0, Culture=neutral, PublicKeyToken=null]]"'. (8a1b66c8)
2020-01-27T12:39:38.4529886+05:30 0HLT2UUPRNMGD:00000003 [INF] Executed action "LoginApi.Controllers.MasterController.GetProductList (LoginApi)" in 46.2463ms (afa2e885)
2020-01-27T12:39:38.4531801+05:30 0HLT2UUPRNMGD:00000003 [INF] Request finished in 52.4843ms 200 application/json; charset=utf-8 (791a596a)
2020-01-27T12:39:38.4718674+05:30 0HLT2UUPRNMGD:00000004 [INF] Request starting HTTP/1.1 GET http://localhost:7002/Login-Api/Report/GetProductCustomerCount  0 (ca22a1cb)
2020-01-27T12:39:38.4724697+05:30 0HLT2UUPRNMGD:00000004 [INF] Route matched with "{action = \"GetProductCustomerCount\", controller = \"Report\"}". Executing controller action with signature "System.Collections.Generic.List`1[LoginApi.Entities.ReportCarrier] GetProductCustomerCount()" on controller "LoginApi.Controllers.ReportController" ("LoginApi"). (122b2fdf)
2020-01-27T12:39:38.4726878+05:30 0HLT2UUPRNMGD:00000004 [INF] Executing action method "LoginApi.Controllers.ReportController.GetProductCustomerCount (LoginApi)" - Validation state: Valid (dad538d7)
2020-01-27T12:39:38.4755321+05:30 0HLT2UUPRNMGD:00000004 [INF] Executed action method "LoginApi.Controllers.ReportController.GetProductCustomerCount (LoginApi)", returned result "Microsoft.AspNetCore.Mvc.ObjectResult" in 2.7239ms. (50a9e262)
2020-01-27T12:39:38.4757069+05:30 0HLT2UUPRNMGD:00000004 [INF] Executing ObjectResult, writing value of type '"System.Collections.Generic.List`1[[LoginApi.Entities.ReportCarrier, LoginApi, Version=1.0.0.0, Culture=neutral, PublicKeyToken=null]]"'. (8a1b66c8)
2020-01-27T12:39:38.4759169+05:30 0HLT2UUPRNMGD:00000004 [INF] Executed action "LoginApi.Controllers.ReportController.GetProductCustomerCount (LoginApi)" in 3.3652ms (afa2e885)
2020-01-27T12:39:38.4760001+05:30 0HLT2UUPRNMGD:00000004 [INF] Request finished in 4.1914ms 200 application/json; charset=utf-8 (791a596a)
2020-01-27T12:39:52.2832623+05:30 0HLT2UUPRNMGD:00000005 [INF] Request starting HTTP/1.1 GET http://localhost:7002/Login-Api/Master/GetCountryList?Employee=0  0 (ca22a1cb)
2020-01-27T12:39:52.2906838+05:30 0HLT2UUPRNMGD:00000005 [INF] Route matched with "{action = \"GetCountryList\", controller = \"Master\"}". Executing controller action with signature "System.Collections.Generic.List`1[LoginApi.Entities.Country] GetCountryList()" on controller "LoginApi.Controllers.MasterController" ("LoginApi"). (122b2fdf)
2020-01-27T12:39:52.2909832+05:30 0HLT2UUPRNMGD:00000005 [INF] Executing action method "LoginApi.Controllers.MasterController.GetCountryList (LoginApi)" - Validation state: Valid (dad538d7)
2020-01-27T12:39:52.3050155+05:30 0HLT2UUPRNMGD:00000005 [INF] Executed action method "LoginApi.Controllers.MasterController.GetCountryList (LoginApi)", returned result "Microsoft.AspNetCore.Mvc.ObjectResult" in 13.8358ms. (50a9e262)
2020-01-27T12:39:52.3052359+05:30 0HLT2UUPRNMGD:00000005 [INF] Executing ObjectResult, writing value of type '"System.Collections.Generic.List`1[[LoginApi.Entities.Country, LoginApi, Version=1.0.0.0, Culture=neutral, PublicKeyToken=null]]"'. (8a1b66c8)
2020-01-27T12:39:52.3196650+05:30 0HLT2UUPRNMGD:00000005 [INF] Executed action "LoginApi.Controllers.MasterController.GetCountryList (LoginApi)" in 28.781ms (afa2e885)
2020-01-27T12:39:52.3197827+05:30 0HLT2UUPRNMGD:00000005 [INF] Request finished in 36.8712ms 200 application/json; charset=utf-8 (791a596a)
2020-01-27T12:40:14.7153734+05:30 0HLT2UUPRNMGD:00000006 [INF] Request starting HTTP/1.1 GET http://localhost:7002/Login-Api/Master/InactiveLoginAPIMethod?PrimaryKey=35&&type=1&&UserId=3  0 (ca22a1cb)
2020-01-27T12:40:14.7310117+05:30 0HLT2UUPRNMGD:00000006 [INF] Route matched with "{action = \"InactiveLoginAPIMethod\", controller = \"Master\"}". Executing controller action with signature "LoginApi.Entities.Baseclasses.Response`1[System.Object] InactiveLoginAPIMethod(Int32, Int32, Int32)" on controller "LoginApi.Controllers.MasterController" ("LoginApi"). (122b2fdf)
2020-01-27T12:40:14.7503643+05:30 0HLT2UUPRNMGD:00000006 [INF] Executing action method "LoginApi.Controllers.MasterController.InactiveLoginAPIMethod (LoginApi)" - Validation state: Valid (dad538d7)
2020-01-27T12:40:14.8767154+05:30 0HLT2UUPRNMGD:00000006 [INF] Executed action method "LoginApi.Controllers.MasterController.InactiveLoginAPIMethod (LoginApi)", returned result "Microsoft.AspNetCore.Mvc.ObjectResult" in 126.2256ms. (50a9e262)
2020-01-27T12:40:14.8768575+05:30 0HLT2UUPRNMGD:00000006 [INF] Executing ObjectResult, writing value of type '"LoginApi.Entities.Baseclasses.Response`1[[System.Object, System.Private.CoreLib, Version=4.0.0.0, Culture=neutral, PublicKeyToken=7cec85d7bea7798e]]"'. (8a1b66c8)
2020-01-27T12:40:14.8818210+05:30 0HLT2UUPRNMGD:00000006 [INF] Executed action "LoginApi.Controllers.MasterController.InactiveLoginAPIMethod (LoginApi)" in 150.5661ms (afa2e885)
2020-01-27T12:40:14.8819211+05:30 0HLT2UUPRNMGD:00000006 [INF] Request finished in 166.8025ms 200 application/json; charset=utf-8 (791a596a)
2020-01-27T12:40:29.9971801+05:30 0HLT2UUPRNMGD:00000007 [INF] Request starting HTTP/1.1 GET http://localhost:7002/Login-Api/Master/GetCountryList?Employee=0  0 (ca22a1cb)
2020-01-27T12:40:29.9990679+05:30 0HLT2UUPRNMGD:00000007 [INF] Route matched with "{action = \"GetCountryList\", controller = \"Master\"}". Executing controller action with signature "System.Collections.Generic.List`1[LoginApi.Entities.Country] GetCountryList()" on controller "LoginApi.Controllers.MasterController" ("LoginApi"). (122b2fdf)
2020-01-27T12:40:29.9994132+05:30 0HLT2UUPRNMGD:00000007 [INF] Executing action method "LoginApi.Controllers.MasterController.GetCountryList (LoginApi)" - Validation state: Valid (dad538d7)
2020-01-27T12:40:30.0042142+05:30 0HLT2UUPRNMGD:00000007 [INF] Executed action method "LoginApi.Controllers.MasterController.GetCountryList (LoginApi)", returned result "Microsoft.AspNetCore.Mvc.ObjectResult" in 4.5696ms. (50a9e262)
2020-01-27T12:40:30.0044001+05:30 0HLT2UUPRNMGD:00000007 [INF] Executing ObjectResult, writing value of type '"System.Collections.Generic.List`1[[LoginApi.Entities.Country, LoginApi, Version=1.0.0.0, Culture=neutral, PublicKeyToken=null]]"'. (8a1b66c8)
2020-01-27T12:40:30.0052526+05:30 0HLT2UUPRNMGD:00000007 [INF] Executed action "LoginApi.Controllers.MasterController.GetCountryList (LoginApi)" in 6.0015ms (afa2e885)
2020-01-27T12:40:30.0053773+05:30 0HLT2UUPRNMGD:00000007 [INF] Request finished in 8.5457ms 200 application/json; charset=utf-8 (791a596a)
2020-01-27T12:42:30.1206241+05:30 0HLT2UUPRNMGE:00000001 [INF] Request starting HTTP/1.1 GET http://localhost:7002/Login-Api/Master/InactiveLoginAPIMethod?PrimaryKey=34&&type=1&&UserId=3  0 (ca22a1cb)
2020-01-27T12:42:30.1218599+05:30 0HLT2UUPRNMGE:00000001 [INF] Route matched with "{action = \"InactiveLoginAPIMethod\", controller = \"Master\"}". Executing controller action with signature "LoginApi.Entities.Baseclasses.Response`1[System.Object] InactiveLoginAPIMethod(Int32, Int32, Int32)" on controller "LoginApi.Controllers.MasterController" ("LoginApi"). (122b2fdf)
2020-01-27T12:42:30.1233344+05:30 0HLT2UUPRNMGE:00000001 [INF] Executing action method "LoginApi.Controllers.MasterController.InactiveLoginAPIMethod (LoginApi)" - Validation state: Valid (dad538d7)
2020-01-27T12:42:30.1849106+05:30 0HLT2UUPRNMGE:00000001 [INF] Executed action method "LoginApi.Controllers.MasterController.InactiveLoginAPIMethod (LoginApi)", returned result "Microsoft.AspNetCore.Mvc.ObjectResult" in 61.3426ms. (50a9e262)
2020-01-27T12:42:30.1850444+05:30 0HLT2UUPRNMGE:00000001 [INF] Executing ObjectResult, writing value of type '"LoginApi.Entities.Baseclasses.Response`1[[System.Object, System.Private.CoreLib, Version=4.0.0.0, Culture=neutral, PublicKeyToken=7cec85d7bea7798e]]"'. (8a1b66c8)
2020-01-27T12:42:30.1853473+05:30 0HLT2UUPRNMGE:00000001 [INF] Executed action "LoginApi.Controllers.MasterController.InactiveLoginAPIMethod (LoginApi)" in 63.3064ms (afa2e885)
2020-01-27T12:42:30.1854430+05:30 0HLT2UUPRNMGE:00000001 [INF] Request finished in 65.2395ms 200 application/json; charset=utf-8 (791a596a)
2020-01-27T12:42:45.3059059+05:30 0HLT2UUPRNMGE:00000002 [INF] Request starting HTTP/1.1 GET http://localhost:7002/Login-Api/Master/GetCountryList?Employee=0  0 (ca22a1cb)
2020-01-27T12:42:45.3088753+05:30 0HLT2UUPRNMGE:00000002 [INF] Route matched with "{action = \"GetCountryList\", controller = \"Master\"}". Executing controller action with signature "System.Collections.Generic.List`1[LoginApi.Entities.Country] GetCountryList()" on controller "LoginApi.Controllers.MasterController" ("LoginApi"). (122b2fdf)
2020-01-27T12:42:45.3092883+05:30 0HLT2UUPRNMGE:00000002 [INF] Executing action method "LoginApi.Controllers.MasterController.GetCountryList (LoginApi)" - Validation state: Valid (dad538d7)
2020-01-27T12:42:45.3167078+05:30 0HLT2UUPRNMGE:00000002 [INF] Executed action method "LoginApi.Controllers.MasterController.GetCountryList (LoginApi)", returned result "Microsoft.AspNetCore.Mvc.ObjectResult" in 7.193ms. (50a9e262)
2020-01-27T12:42:45.3170201+05:30 0HLT2UUPRNMGE:00000002 [INF] Executing ObjectResult, writing value of type '"System.Collections.Generic.List`1[[LoginApi.Entities.Country, LoginApi, Version=1.0.0.0, Culture=neutral, PublicKeyToken=null]]"'. (8a1b66c8)
2020-01-27T12:42:45.3183574+05:30 0HLT2UUPRNMGE:00000002 [INF] Executed action "LoginApi.Controllers.MasterController.GetCountryList (LoginApi)" in 9.2447ms (afa2e885)
2020-01-27T12:42:45.3186046+05:30 0HLT2UUPRNMGE:00000002 [INF] Request finished in 14.441ms 200 application/json; charset=utf-8 (791a596a)
2020-01-27T13:21:39.9977353+05:30 0HLT2UUPRNMGF:00000001 [INF] Request starting HTTP/1.1 POST http://localhost:7002/Login-Api/Master/GetUserDetails application/json; charset=utf-8  (ca22a1cb)
2020-01-27T13:21:39.9981270+05:30 0HLT2UUPRNMGF:00000001 [INF] Route matched with "{action = \"GetUserDetails\", controller = \"Master\"}". Executing controller action with signature "LoginApi.Entities.Baseclasses.Response`1[LoginApi.Entities.UserLogin] GetUserDetails(LoginApi.Entities.UserLogin)" on controller "LoginApi.Controllers.MasterController" ("LoginApi"). (122b2fdf)
2020-01-27T13:21:39.9992322+05:30 0HLT2UUPRNMGF:00000001 [INF] Executing action method "LoginApi.Controllers.MasterController.GetUserDetails (LoginApi)" - Validation state: Valid (dad538d7)
2020-01-27T13:21:40.1321972+05:30 0HLT2UUPRNMGF:00000001 [INF] Executed action method "LoginApi.Controllers.MasterController.GetUserDetails (LoginApi)", returned result "Microsoft.AspNetCore.Mvc.ObjectResult" in 132.7897ms. (50a9e262)
2020-01-27T13:21:40.1324383+05:30 0HLT2UUPRNMGF:00000001 [INF] Executing ObjectResult, writing value of type '"LoginApi.Entities.Baseclasses.Response`1[[LoginApi.Entities.UserLogin, LoginApi, Version=1.0.0.0, Culture=neutral, PublicKeyToken=null]]"'. (8a1b66c8)
2020-01-27T13:21:40.1331181+05:30 0HLT2UUPRNMGF:00000001 [INF] Executed action "LoginApi.Controllers.MasterController.GetUserDetails (LoginApi)" in 134.8733ms (afa2e885)
2020-01-27T13:21:40.1333459+05:30 0HLT2UUPRNMGF:00000001 [INF] Request finished in 135.7226ms 200 application/json; charset=utf-8 (791a596a)
2020-01-27T13:22:02.5118448+05:30 0HLT2UUPRNMGF:00000002 [INF] Request starting HTTP/1.1 GET http://localhost:7002/Login-Api/Report/GetProductCustomerCount  0 (ca22a1cb)
2020-01-27T13:22:02.5120603+05:30 0HLT2UUPRNMGF:00000002 [INF] Route matched with "{action = \"GetProductCustomerCount\", controller = \"Report\"}". Executing controller action with signature "System.Collections.Generic.List`1[LoginApi.Entities.ReportCarrier] GetProductCustomerCount()" on controller "LoginApi.Controllers.ReportController" ("LoginApi"). (122b2fdf)
2020-01-27T13:22:02.5121567+05:30 0HLT2UUPRNMGF:00000002 [INF] Executing action method "LoginApi.Controllers.ReportController.GetProductCustomerCount (LoginApi)" - Validation state: Valid (dad538d7)
2020-01-27T13:22:02.5153414+05:30 0HLT2UUPRNMGF:00000002 [INF] Executed action method "LoginApi.Controllers.ReportController.GetProductCustomerCount (LoginApi)", returned result "Microsoft.AspNetCore.Mvc.ObjectResult" in 3.1041ms. (50a9e262)
2020-01-27T13:22:02.5154646+05:30 0HLT2UUPRNMGF:00000002 [INF] Executing ObjectResult, writing value of type '"System.Collections.Generic.List`1[[LoginApi.Entities.ReportCarrier, LoginApi, Version=1.0.0.0, Culture=neutral, PublicKeyToken=null]]"'. (8a1b66c8)
2020-01-27T13:22:02.5157081+05:30 0HLT2UUPRNMGF:00000002 [INF] Executed action "LoginApi.Controllers.ReportController.GetProductCustomerCount (LoginApi)" in 3.5861ms (afa2e885)
2020-01-27T13:22:02.5157981+05:30 0HLT2UUPRNMGF:00000002 [INF] Request finished in 4.149ms 200 application/json; charset=utf-8 (791a596a)
2020-01-27T13:22:18.6986941+05:30 0HLT2UUPRNMGF:00000003 [INF] Request starting HTTP/1.1 GET http://localhost:7002/Login-Api/Master/GetProductList  0 (ca22a1cb)
2020-01-27T13:22:18.6991828+05:30 0HLT2UUPRNMGF:00000003 [INF] Route matched with "{action = \"GetProductList\", controller = \"Master\"}". Executing controller action with signature "System.Collections.Generic.List`1[LoginApi.Entities.Product] GetProductList()" on controller "LoginApi.Controllers.MasterController" ("LoginApi"). (122b2fdf)
2020-01-27T13:22:18.6995016+05:30 0HLT2UUPRNMGF:00000003 [INF] Executing action method "LoginApi.Controllers.MasterController.GetProductList (LoginApi)" - Validation state: Valid (dad538d7)
2020-01-27T13:22:18.7035658+05:30 0HLT2UUPRNMGF:00000003 [INF] Executed action method "LoginApi.Controllers.MasterController.GetProductList (LoginApi)", returned result "Microsoft.AspNetCore.Mvc.ObjectResult" in 3.9373ms. (50a9e262)
2020-01-27T13:22:18.7036860+05:30 0HLT2UUPRNMGF:00000003 [INF] Executing ObjectResult, writing value of type '"System.Collections.Generic.List`1[[LoginApi.Entities.Product, LoginApi, Version=1.0.0.0, Culture=neutral, PublicKeyToken=null]]"'. (8a1b66c8)
2020-01-27T13:22:18.7039983+05:30 0HLT2UUPRNMGF:00000003 [INF] Executed action "LoginApi.Controllers.MasterController.GetProductList (LoginApi)" in 4.6626ms (afa2e885)
2020-01-27T13:22:18.7040761+05:30 0HLT2UUPRNMGF:00000003 [INF] Request finished in 5.4824ms 200 application/json; charset=utf-8 (791a596a)
2020-01-27T13:22:18.7145309+05:30 0HLT2UUPRNMGF:00000004 [INF] Request starting HTTP/1.1 GET http://localhost:7002/Login-Api/Report/GetProductCustomerCount  0 (ca22a1cb)
2020-01-27T13:22:18.7147157+05:30 0HLT2UUPRNMGF:00000004 [INF] Route matched with "{action = \"GetProductCustomerCount\", controller = \"Report\"}". Executing controller action with signature "System.Collections.Generic.List`1[LoginApi.Entities.ReportCarrier] GetProductCustomerCount()" on controller "LoginApi.Controllers.ReportController" ("LoginApi"). (122b2fdf)
2020-01-27T13:22:18.7149278+05:30 0HLT2UUPRNMGF:00000004 [INF] Executing action method "LoginApi.Controllers.ReportController.GetProductCustomerCount (LoginApi)" - Validation state: Valid (dad538d7)
2020-01-27T13:22:18.7173712+05:30 0HLT2UUPRNMGF:00000004 [INF] Executed action method "LoginApi.Controllers.ReportController.GetProductCustomerCount (LoginApi)", returned result "Microsoft.AspNetCore.Mvc.ObjectResult" in 2.3084ms. (50a9e262)
2020-01-27T13:22:18.7174944+05:30 0HLT2UUPRNMGF:00000004 [INF] Executing ObjectResult, writing value of type '"System.Collections.Generic.List`1[[LoginApi.Entities.ReportCarrier, LoginApi, Version=1.0.0.0, Culture=neutral, PublicKeyToken=null]]"'. (8a1b66c8)
2020-01-27T13:22:18.7176745+05:30 0HLT2UUPRNMGF:00000004 [INF] Executed action "LoginApi.Controllers.ReportController.GetProductCustomerCount (LoginApi)" in 2.8958ms (afa2e885)
2020-01-27T13:22:18.7177679+05:30 0HLT2UUPRNMGF:00000004 [INF] Request finished in 3.2396ms 200 application/json; charset=utf-8 (791a596a)
